{
  "name": "",
  "css_prefix_text": "icon-",
  "css_use_suffix": false,
  "hinting": true,
  "units_per_em": 1000,
  "ascent": 850,
  "glyphs": [
    {
      "uid": "c03284ddefae90dfd5ae9f0ee03325a2",
      "css": "fast-forward",
      "code": 59395,
      "src": "elusive"
    },
    {
      "uid": "55f7ab3f2bedec72e8400fa2798a7a1a",
      "css": "list",
      "code": 59396,
      "src": "elusive"
    },
    {
      "uid": "b59b3b618699b467541f631edd5a02ed",
      "css": "volume-up",
      "code": 59397,
      "src": "elusive"
    },
    {
      "uid": "5d9730dc93976d27eb07914eab50a507",
      "css": "volume-down",
      "code": 59398,
      "src": "elusive"
    },
    {
      "uid": "8489d61496923b1159b01d8a0a7b2df0",
      "css": "volume-off",
      "code": 59399,
      "src": "elusive"
    },
    {
      "uid": "012ff5762ccb18c16bdfdd6baf187406",
      "css": "volume-up-1",
      "code": 59400,
      "src": "elusive"
    },
    {
      "uid": "6707ea950c24c5b01625f7ea73b2172e",
      "css": "resize-full-alt",
      "code": 59401,
      "src": "elusive"
    },
    {
      "uid": "1e32e1f8787cf3cb9f52f8850822dcb6",
      "css": "cogs",
      "code": 59392,
      "src": "elusive"
    },
    {
      "uid": "6083c8aa5e3345476a24a28ac1afaa61",
      "css": "cog",
      "code": 59402,
      "src": "elusive"
    },
    {
      "uid": "cde79a37774e5817bc68fff2464aee28",
      "css": "wrench",
      "code": 59403,
      "src": "elusive"
    },
    {
      "uid": "c0a07aca383ff2a164a4d691fa46e35c",
      "css": "left-open",
      "code": 59404,
      "src": "elusive"
    },
    {
      "uid": "dc4a03854ef986d64565143bea4241aa",
      "css": "right-open",
      "code": 59405,
      "src": "elusive"
    },
    {
      "uid": "1b2ef17b42012a1e46743f9be8384f83",
      "css": "left",
      "code": 59406,
      "src": "elusive"
    },
    {
      "uid": "23012c4e68769e1f133bba1f93a734d1",
      "css": "right",
      "code": 59407,
      "src": "elusive"
    },
    {
      "uid": "a81de1d804430408892a8291b2372013",
      "css": "left-circled",
      "code": 59408,
      "src": "elusive"
    },
    {
      "uid": "4c84ab263a198ea543aff93843c5ce87",
      "css": "right-circled",
      "code": 59409,
      "src": "elusive"
    },
    {
      "uid": "8c7e34dcc8cc90ed5f4fd59949201f41",
      "css": "resize-small",
      "code": 59410,
      "src": "elusive"
    },
    {
      "uid": "c69425891f0b3ba4883e692a55e83bfd",
      "css": "fast-backward",
      "code": 59413,
      "src": "elusive"
    },
    {
      "uid": "57776e51a50e3b4d92701bdbbba01588",
      "css": "resize-full",
      "code": 59414,
      "src": "elusive"
    },
    {
      "uid": "3711151b8b34536498e2a7f4d5188ed2",
      "css": "play",
      "code": 61455,
      "src": "mfglabs"
    },
    {
      "uid": "164f35b55c3346b03fa89a711a4f3980",
      "css": "pause",
      "code": 61454,
      "src": "mfglabs"
    },
    {
      "uid": "0a38a63796b90318b5fca493c3d4a17a",
      "css": "stop",
      "code": 61568,
      "src": "mfglabs"
    },
    {
      "uid": "dcda6b27f1f63fbd7b8bf8d45cc4d340",
      "css": "to-end",
      "code": 61456,
      "src": "mfglabs"
    },
    {
      "uid": "75b228ebc26946ca00360ca10f052e3c",
      "css": "to-start",
      "code": 61457,
      "src": "mfglabs"
    },
    {
      "uid": "7acc2dfe18c6f4548626696fab27ba8a",
      "css": "play-circled2-1",
      "code": 59393,
      "src": "elusive"
    },
    {
      "uid": "fc006ff27e50163bdec3a7588226171b",
      "css": "play-circled2",
      "code": 59394,
      "src": "elusive"
    },
    {
      "uid": "c74dc50bfc8aa68f0d23010ad8960cb2",
      "css": "ccw",
      "code": 61477,
      "src": "mfglabs"
    },
    {
      "uid": "f9c3205df26e7778abac86183aefdc99",
      "css": "ccw-1",
      "code": 59411,
      "src": "fontawesome"
    }
  ]
}